<svg version="1.1" id="Lager_1" xmlns="http://www.w3.org/2000/svg" xmlns:xlink="http://www.w3.org/1999/xlink" x="0px" y="0px"
	 viewBox="0 0 465.66 354.55" style="enable-background:new 0 0 465.66 354.55;" xml:space="preserve">
<style type="text/css">
	.st0{fill:#F7F7F7;stroke:#000000;stroke-width:10;stroke-miterlimit:10;}
	.st1{fill:#F7F7F7;stroke:#000000;stroke-width:10;stroke-linejoin:round;stroke-miterlimit:10;}
</style>
<path class="st0" d="M305.08,294.95h-144.5c-8.91,0-16.14-7.22-16.14-16.14V75.73c0-8.91,7.22-16.14,16.14-16.14h105.08l55.56,55.56
	v163.66C321.21,287.73,313.99,294.95,305.08,294.95z"/>
<path class="st1" d="M321.21,116.15h-38.55c-9.39,0-17.01-7.61-17.01-17.01V60.6L321.21,116.15z"/>
</svg>
